^C:\USERS\YURKO\SOURCE\REPOS\МАССИВ, СЛУЧАЙНЫЕ ЧИСЛА, MIN ЭЛЕМЕНТ\SOURCE.CPP
C:\USERS\YURKO\SOURCE\REPOS\Массив, случайные числа, MIN элемент\X64\DEBUG\VC143.PDB
C:\USERS\YURKO\SOURCE\REPOS\Массив, случайные числа, MIN элемент\X64\DEBUG\VC143.IDB
C:\USERS\YURKO\SOURCE\REPOS\Массив, случайные числа, MIN элемент\X64\DEBUG\SOURCE.OBJ
